{
  "type": "service_account",
  "project_id": "wmtu-music-scheduling",
  "private_key_id": "cb027d20146aa118fb3b79a6bc5c86c1d03553cb",
  "private_key": "-----BEGIN PRIVATE KEY-----\nMIIEvQIBADANBgkqhkiG9w0BAQEFAASCBKcwggSjAgEAAoIBAQCXvJC2o9cOAxVl\nzzdK/zauTnPctrSMhEMTnCQbATJHi3Q63nZ2Lx+iJXcbUe7GMmr7RSGEY81OEUnm\n0kfpya9Y19Djmc2eJ9xDQFYVPu2xcYzP2n2RLh4MyNhX8mLelXQDZ8zs++W2jOuI\nNjnlb7qz8ISku1sAo1v9Vwg3KWtYAUWivy/t6MwAEct9W7K6bLhFs/xixyzrMDZH\nwooyDhiHP1hUfGsoxL69NPSkSwPd9FGMK2Ck2c8+b8NpQUCJtUg6qrigsOLH6jK2\nS5N061dOvqRCBezw3QXJXPp3IIeKQqMbNkrJOD0g5WtJHXYwSdIngSrFmIrQMhI3\nU83ahYSVAgMBAAECggEAG1vH+e5boa6jpoowrYiLqu0BTfvxXN6iG4CNMANMtgKq\nb8zZriB8AyffLGFe/IRtrqV90BmQlHFgkko65ifTwmCTTN5X6RrFx6hrfQQuJk7T\ndUyvVERs7aAvBdhxxDFNTCnklJwshHgvJY2lbb1x++yzdeJEG77YoLqXBB8nOCQn\neBd6scjXxnn18RPO4DVZJvlc5Oppuv4fELw/DXhvzCF2ZgmdV98Agin6w54xB4Bz\n6eS4Wh9rr1yXIs/KNsUvPhtpRiRKFxzCyWwdR1FHNYKeJC4ezw8xtUdcr/qCjxFa\nveZiDP87LgqMl5UsbzPSxmkgYhB+grDnJqkTXz/IcQKBgQDK9z9GCjWEJOKCOHLG\n7fi1loBPiHACY/Q6PuI3V39K5kT2QMdWeCwfBei0ja1TvzJXd/4CBcrOuHmLLLql\nwid1D5xDf8NMdeoiF5XcjK8EjnhFcs5OugrnA4+Tx5kCAU7uYVjVtAaDAIvNaXPB\nKaZ1kKGuHYqcaXpRkFN5fFXhaQKBgQC/YoB4gH9Ix+Xo78X3WzqfuWfTJmBssa2z\nav/ZqwEUDFegg7EFcva0gqy8PD+VoYaYkdcH4SxRhWzP1jSU8Ijq5T0of+0SsvPh\neUlM5I/v8X1lLCGTExtJYzdJpc77R87vNER5REPurchXeL1H3xVytC/28vksx89F\n3eI50lv4TQKBgD8o1Y3MG381oy72tfDlmOGZJfCZ+pEj3ZpKe0bReZErOwaOffmQ\nh9pXkmStOeS3uMizVF34w3W0vk3q62Itmu24n935YiLnBqb5Q+9P8B6w3whtg3nI\nNyBQYVuRXzHail9v95742JXnk5mmWRkhBuXKziVKmBm4URIUoYVKhccRAoGAF9IN\nxXHQ5eEjh4uYa0IqmMi92HUVWVIAGa2+rHvxRWqH2Y2qkdAOTsdY8pDZJSmWlBTK\n28s19euScIfrwYHyuLHRm+HYQxSM8EplSjHEjIvVHKuSfjjJk6fKsNr3WSVF51Xt\nE97gSavNnL2FaZWlmMI+mhEB3IX+EWcdii7ZjZ0CgYEAs1QXMvi1/cjkzPnUqp7j\nHfyEwr17+HALJdMbcRsxh5h+pOIpY0akmFQrNySwt9TDebdUMiawW5Ti9q5UuNxe\n3BU+SeXrR/vXbUKeQ60oTkxf26UgIuY3IbTTUB4p4ZTQukwKmRbZmZXG4NOgSjY9\nYOF9PJ1P7iPPUmUjNXY8aQw=\n-----END PRIVATE KEY-----\n",
  "client_email": "write-musicschedule@wmtu-music-scheduling.iam.gserviceaccount.com",
  "client_id": "102355880837072030023",
  "auth_uri": "https://accounts.google.com/o/oauth2/auth",
  "token_uri": "https://oauth2.googleapis.com/token",
  "auth_provider_x509_cert_url": "https://www.googleapis.com/oauth2/v1/certs",
  "client_x509_cert_url": "https://www.googleapis.com/robot/v1/metadata/x509/write-musicschedule%40wmtu-music-scheduling.iam.gserviceaccount.com"
}
